{
    "Example_Model": {
      "type": "object",
      "required":[
        "version"
      ],
      "properties": {
        "l1": {
          "type": "object",
          "properties":{
              "l2":{
                "type":"string"
            }
        }
        }
      }
    }
  }
  